Datapath_con_Unidad_de_Control/testbench.vcd
$date
	Sun Nov  7 07:29:56 2021
$end
$version
	Icarus Verilog
$end
$timescale
	1ps
$end
$scope module testbench $end
$var wire 1 ! Ready $end
$var wire 17 " Producto [16:0] $end
$var reg 8 # Multiplicador [7:0] $end
$var reg 8 $ Multiplicando [7:0] $end
$var reg 1 % Start $end
$var reg 1 & clk $end
$var reg 1 ' rst $end
$scope module DUT $end
$var wire 1 ( C5 $end
$var wire 1 ) C6 $end
$var wire 8 * Multiplicador [7:0] $end
$var wire 8 + Multiplicando [7:0] $end
$var wire 1 % Start $end
$var wire 1 & clk $end
$var wire 1 ' rst $end
$var wire 1 , Zero $end
$var wire 1 - Shift_Regs $end
$var wire 1 . S7 $end
$var wire 1 / S6 $end
$var wire 1 0 S5 $end
$var wire 1 ! Ready $end
$var wire 1 1 Q0 $end
$var wire 17 2 Producto [16:0] $end
$var wire 1 3 Load_Regs $end
$var wire 1 4 Decr_P $end
$var wire 1 5 Add_Regs $end
$scope module Controller $end
$var wire 1 % Condicion1 $end
$var wire 1 6 Condicion4 $end
$var wire 1 ( Condicion5 $end
$var wire 1 ) Condicion6 $end
$var wire 1 & clk $end
$var wire 1 ' rst $end
$var wire 1 7 tmp0 $end
$var wire 1 . salida7 $end
$var wire 1 / salida6 $end
$var wire 1 0 salida5 $end
$var wire 1 ! salida4 $end
$var wire 1 3 salida3 $end
$var wire 1 - salida2 $end
$var wire 1 5 salida1 $end
$var wire 1 4 salida0 $end
$var wire 1 8 Senal_De_Carga_Contador $end
$var wire 3 9 Seleccion_De_Condicion_Salto [2:0] $end
$var wire 8 : Direccion_Salto [7:0] $end
$var wire 8 ; Cuenta_Direccion_Memoria [7:0] $end
$var wire 1 , Condicion3 $end
$var wire 1 1 Condicion2 $end
$scope module MUX $end
$var wire 8 < in_bits [7:0] $end
$var wire 3 = sel [2:0] $end
$var reg 1 8 out $end
$upscope $end
$scope module Uconta $end
$var wire 8 > CuentaEntrada [7:0] $end
$var wire 1 8 LD_C $end
$var wire 1 & clk $end
$var wire 1 ' rst $end
$var reg 8 ? cuenta [7:0] $end
$upscope $end
$scope module Umem $end
$var wire 8 @ A [7:0] $end
$var wire 20 A Do [19:0] $end
$upscope $end
$upscope $end
$scope module DP $end
$var wire 1 5 Add_Regs $end
$var wire 8 B DP_B [7:0] $end
$var wire 8 C DP_Q [7:0] $end
$var wire 1 4 Decr_P $end
$var wire 1 3 Load_Regs $end
$var wire 1 - Shift_Regs $end
$var wire 1 & clk $end
$var wire 1 ' rst $end
$var wire 1 D salidaSerieQ $end
$var wire 1 E salidaSerieC $end
$var wire 1 F salidaSerieA $end
$var wire 8 G salidaRegB [7:0] $end
$var wire 8 H salidaParalelaQ [7:0] $end
$var wire 1 I salidaParalelaC $end
$var wire 8 J salidaParalelaA [7:0] $end
$var wire 8 K resultadoSum [7:0] $end
$var wire 3 L cuenta [2:0] $end
$var wire 1 M cout $end
$var reg 1 N EN_A $end
$var reg 1 O EN_C $end
$var reg 1 P EN_Q $end
$var reg 1 Q LS_A $end
$var reg 1 R LS_Q $end
$var reg 17 S Producto [16:0] $end
$var reg 1 1 Q0 $end
$var reg 1 , Zero $end
$scope module RegisterA $end
$var wire 1 N EN $end
$var wire 1 Q LS $end
$var wire 1 & clk $end
$var wire 1 ' rst $end
$var wire 8 T DP [7:0] $end
$var wire 1 E D $end
$var reg 8 U next_state [7:0] $end
$var reg 8 V outParalela [7:0] $end
$var reg 1 F outSerie $end
$var reg 8 W state [7:0] $end
$upscope $end
$scope module RegisterB $end
$var wire 8 X DP [7:0] $end
$var wire 1 3 EN $end
$var wire 1 & clk $end
$var wire 1 ' rst $end
$var reg 8 Y next_state [7:0] $end
$var reg 8 Z out [7:0] $end
$var reg 8 [ state [7:0] $end
$upscope $end
$scope module RegisterC $end
$var wire 1 \ D $end
$var wire 1 O EN $end
$var wire 1 - LS $end
$var wire 1 & clk $end
$var wire 1 ' rst $end
$var wire 1 M DP $end
$var reg 1 ] next_state $end
$var reg 1 I outParalela $end
$var reg 1 E outSerie $end
$var reg 1 ^ state $end
$upscope $end
$scope module RegisterP $end
$var wire 1 4 EN $end
$var wire 1 & clk $end
$var wire 1 ' rst $end
$var reg 3 _ cuenta [2:0] $end
$var reg 3 ` next_state [2:0] $end
$var reg 3 a state [2:0] $end
$upscope $end
$scope module RegisterQ $end
$var wire 1 F D $end
$var wire 8 b DP [7:0] $end
$var wire 1 P EN $end
$var wire 1 R LS $end
$var wire 1 & clk $end
$var wire 1 ' rst $end
$var reg 8 c next_state [7:0] $end
$var reg 8 d outParalela [7:0] $end
$var reg 1 D outSerie $end
$var reg 8 e state [7:0] $end
$upscope $end
$scope module sum $end
$var wire 8 f A [7:0] $end
$var wire 8 g B [7:0] $end
$var wire 1 E Cin $end
$var reg 1 M Cout $end
$var reg 8 h S [7:0] $end
$upscope $end
$upscope $end
$upscope $end
$upscope $end
$enddefinitions $end
#0
$dumpvars
bx h
bx g
bx f
bx e
bx d
bx c
bx b
bx a
bx `
bx _
x^
x]
0\
bx [
bx Z
bx Y
bx X
bx W
bx V
bx U
bx T
bx S
xR
xQ
xP
xO
xN
xM
bx L
bx K
bx J
xI
bx H
bx G
xF
xE
xD
bx C
bx B
bx A
bx @
bx ?
bx >
bx =
b1zz1xx00 <
bx ;
bx :
bx 9
x8
x7
16
x5
x4
x3
bx 2
x1
x0
x/
x.
x-
x,
bx +
bx *
z)
z(
0'
0&
0%
bx $
bx #
bx "
x!
$end
#5000
0M
b0 K
b0 T
b0 h
0,
01
b0 "
b0 2
b0 S
b0 G
b0 Z
b0 g
b0 Y
0I
0E
0]
b0 J
b0 V
b0 f
0F
b0 U
b0 H
b0 d
0D
b0 c
b111 L
b111 _
b110 `
06
b0 [
0^
b0 W
b0 e
b111 a
b0 ;
b0 ?
b0 @
b1zz00010 <
1%
1'
b10011 #
b10011 *
b10011 C
b10011 b
b10111 $
b10111 +
b10111 B
b10111 X
1&
#10000
18
b111 `
0N
0O
1Q
0P
1R
b1 9
b1 =
07
04
05
0-
03
0!
00
0/
0.
b11 :
b11 >
b11000000000001 A
0&
#15000
b11 ;
b11 ?
b11 @
1&
#20000
b10011 c
08
0R
1P
b10111 Y
b0 9
b0 =
13
b0 :
b0 >
b10000000 A
0&
#25000
b10111 K
b10111 T
b10111 h
b1zz00110 <
11
b10011 "
b10011 2
b10011 S
b10111 G
b10111 Z
b10111 g
b10011 H
b10011 d
1D
b10111 [
b10011 e
b100 ;
b100 ?
b100 @
1&
#30000
0P
1R
b100 9
b100 =
03
b100 A
0&
#35000
b101 ;
b101 ?
b101 @
1&
#40000
b11 9
b11 =
b10001 :
b10001 >
b10001000000000011 A
0&
#45000
b110 ;
b110 ?
b110 @
1&
#50000
b0 9
b0 =
b0 :
b0 >
b0 A
0&
#55000
b111 ;
b111 ?
b111 @
1&
#60000
18
b10 9
b10 =
b1011 :
b1011 >
b1011000000000010 A
0&
#65000
b1011 ;
b1011 ?
b1011 @
1&
#70000
b10111 U
0Q
1N
b111 9
b111 =
15
b1000 :
b1000 >
b1000000000100111 A
0&
#75000
b101110 U
b101110 K
b101110 T
b101110 h
b1011100010011 "
b1011100010011 2
b1011100010011 S
b10111 J
b10111 V
b10111 f
1F
b1000 ;
b1000 ?
b1000 @
b10111 W
1&
#80000
b10111 U
08
0N
1Q
b100 9
b100 =
05
b0 :
b0 >
b100 A
0&
#85000
b1001 ;
b1001 ?
b1001 @
1&
#90000
b10001001 c
b1011 U
18
1P
1N
1O
b111 9
b111 =
1-
b1100 :
b1100 >
b1100000001000111 A
0&
#95000
b100010 K
b100010 T
b100010 h
b101110001001 "
b101110001001 2
b101110001001 S
b10001001 H
b10001001 d
b11000100 c
b1011 J
b1011 V
b1011 f
b101 U
b1100 ;
b1100 ?
b1100 @
b10001001 e
b1011 W
1&
#100000
b10001001 c
b1011 U
08
0P
0N
0O
b100 9
b100 =
0-
b0 :
b0 >
b100 A
0&
#105000
b1101 ;
b1101 ?
b1101 @
1&
#110000
18
b110 `
b111 9
b111 =
14
b100 :
b100 >
b100000000010111 A
0&
#115000
b110 L
b110 _
b101 `
b100 ;
b100 ?
b100 @
b110 a
1&
#120000
08
b110 `
b100 9
b100 =
04
b0 :
b0 >
b100 A
0&
#125000
b101 ;
b101 ?
b101 @
1&
#130000
b11 9
b11 =
b10001 :
b10001 >
b10001000000000011 A
0&
#135000
b110 ;
b110 ?
b110 @
1&
#140000
b0 9
b0 =
b0 :
b0 >
b0 A
0&
#145000
b111 ;
b111 ?
b111 @
1&
#150000
18
b10 9
b10 =
b1011 :
b1011 >
b1011000000000010 A
0&
#155000
b1011 ;
b1011 ?
b1011 @
1&
#160000
b100010 U
0Q
1N
b111 9
b111 =
15
b1000 :
b1000 >
b1000000000100111 A
0&
#165000
b111001 U
b111001 K
b111001 T
b111001 h
b10001010001001 "
b10001010001001 2
b10001010001001 S
b100010 J
b100010 V
b100010 f
0F
b100010 W
b1000 ;
b1000 ?
b1000 @
1&
#170000
b100010 U
08
0N
1Q
b100 9
b100 =
05
b0 :
b0 >
b100 A
0&
#175000
b1001 ;
b1001 ?
b1001 @
1&
#180000
b1000100 c
b10001 U
18
1P
1N
1O
b111 9
b111 =
1-
b1100 :
b1100 >
b1100000001000111 A
0&
#185000
b101000 K
b101000 T
b101000 h
b1zz00010 <
01
b1000101000100 "
b1000101000100 2
b1000101000100 S
b10001 J
b10001 V
b10001 f
1F
b1000 U
b1000100 H
b1000100 d
0D
b10100010 c
b10001 W
b1000100 e
b1100 ;
b1100 ?
b1100 @
1&
#190000
b1000100 c
b10001 U
08
0P
0N
0O
b100 9
b100 =
0-
b0 :
b0 >
b100 A
0&
#195000
b1101 ;
b1101 ?
b1101 @
1&
#200000
18
b101 `
b111 9
b111 =
14
b100 :
b100 >
b100000000010111 A
0&
#205000
b101 L
b101 _
b100 `
b101 a
b100 ;
b100 ?
b100 @
1&
#210000
08
b101 `
b100 9
b100 =
04
b0 :
b0 >
b100 A
0&
#215000
b101 ;
b101 ?
b101 @
1&
#220000
b11 9
b11 =
b10001 :
b10001 >
b10001000000000011 A
0&
#225000
b110 ;
b110 ?
b110 @
1&
#230000
b0 9
b0 =
b0 :
b0 >
b0 A
0&
#235000
b111 ;
b111 ?
b111 @
1&
#240000
b10 9
b10 =
b1011 :
b1011 >
b1011000000000010 A
0&
#245000
b1000 ;
b1000 ?
b1000 @
1&
#250000
b100 9
b100 =
b0 :
b0 >
b100 A
0&
#255000
b1001 ;
b1001 ?
b1001 @
1&
#260000
b10100010 c
b1000 U
18
1P
1N
1O
b111 9
b111 =
1-
b1100 :
b1100 >
b1100000001000111 A
0&
#265000
b11111 K
b11111 T
b11111 h
b100010100010 "
b100010100010 2
b100010100010 S
b1000 J
b1000 V
b1000 f
0F
b100 U
b10100010 H
b10100010 d
b1010001 c
b1000 W
b10100010 e
b1100 ;
b1100 ?
b1100 @
1&
#270000
b10100010 c
b1000 U
08
0P
0N
0O
b100 9
b100 =
0-
b0 :
b0 >
b100 A
0&
#275000
b1101 ;
b1101 ?
b1101 @
1&
#280000
18
b100 `
b111 9
b111 =
14
b100 :
b100 >
b100000000010111 A
0&
#285000
b100 L
b100 _
b11 `
b100 a
b100 ;
b100 ?
b100 @
1&
#290000
08
b100 `
b100 9
b100 =
04
b0 :
b0 >
b100 A
0&
#295000
b101 ;
b101 ?
b101 @
1&
#300000
b11 9
b11 =
b10001 :
b10001 >
b10001000000000011 A
0&
#305000
b110 ;
b110 ?
b110 @
1&
#310000
b0 9
b0 =
b0 :
b0 >
b0 A
0&
#315000
b111 ;
b111 ?
b111 @
1&
#320000
b10 9
b10 =
b1011 :
b1011 >
b1011000000000010 A
0&
#325000
b1000 ;
b1000 ?
b1000 @
1&
#330000
b100 9
b100 =
b0 :
b0 >
b100 A
0&
#335000
b1001 ;
b1001 ?
b1001 @
1&
#340000
b1010001 c
b100 U
18
1P
1N
1O
b111 9
b111 =
1-
b1100 :
b1100 >
b1100000001000111 A
0&
#345000
b11011 K
b11011 T
b11011 h
b1zz00110 <
11
b10001010001 "
b10001010001 2
b10001010001 S
b100 J
b100 V
b100 f
b10 U
b1010001 H
b1010001 d
1D
b101000 c
b100 W
b1010001 e
b1100 ;
b1100 ?
b1100 @
1&
#350000
b1010001 c
b100 U
08
0P
0N
0O
b100 9
b100 =
0-
b0 :
b0 >
b100 A
0&
#355000
b1101 ;
b1101 ?
b1101 @
1&
#360000
18
b11 `
b111 9
b111 =
14
b100 :
b100 >
b100000000010111 A
0&
#365000
b11 L
b11 _
b10 `
b11 a
b100 ;
b100 ?
b100 @
1&
#370000
08
b11 `
b100 9
b100 =
04
b0 :
b0 >
b100 A
0&
#375000
b101 ;
b101 ?
b101 @
1&
#380000
b11 9
b11 =
b10001 :
b10001 >
b10001000000000011 A
0&
#385000
b110 ;
b110 ?
b110 @
1&
#390000
b0 9
b0 =
b0 :
b0 >
b0 A
0&
#395000
b111 ;
b111 ?
b111 @
1&
#400000
18
b10 9
b10 =
b1011 :
b1011 >
b1011000000000010 A
0&
#405000
b1011 ;
b1011 ?
b1011 @
1&
#410000
b11011 U
0Q
1N
b111 9
b111 =
15
b1000 :
b1000 >
b1000000000100111 A
0&
#415000
b110010 U
b110010 K
b110010 T
b110010 h
b1101101010001 "
b1101101010001 2
b1101101010001 S
b11011 J
b11011 V
b11011 f
1F
b1000 ;
b1000 ?
b1000 @
b11011 W
1&
#420000
b11011 U
08
0N
1Q
b100 9
b100 =
05
b0 :
b0 >
b100 A
0&
#425000
b1001 ;
b1001 ?
b1001 @
1&
#430000
b10101000 c
b1101 U
18
1P
1N
1O
b111 9
b111 =
1-
b1100 :
b1100 >
b1100000001000111 A
0&
#435000
b100100 K
b100100 T
b100100 h
b1zz00010 <
01
b110110101000 "
b110110101000 2
b110110101000 S
b10101000 H
b10101000 d
0D
b11010100 c
b1101 J
b1101 V
b1101 f
b110 U
b1100 ;
b1100 ?
b1100 @
b10101000 e
b1101 W
1&
#440000
b10101000 c
b1101 U
08
0P
0N
0O
b100 9
b100 =
0-
b0 :
b0 >
b100 A
0&
#445000
b1101 ;
b1101 ?
b1101 @
1&
#450000
18
b10 `
b111 9
b111 =
14
b100 :
b100 >
b100000000010111 A
0&
#455000
b10 L
b10 _
b1 `
b100 ;
b100 ?
b100 @
b10 a
1&
#460000
08
b10 `
b100 9
b100 =
04
b0 :
b0 >
b100 A
0&
#465000
b101 ;
b101 ?
b101 @
1&
#470000
b11 9
b11 =
b10001 :
b10001 >
b10001000000000011 A
0&
#475000
b110 ;
b110 ?
b110 @
1&
#480000
b0 9
b0 =
b0 :
b0 >
b0 A
0&
#485000
b111 ;
b111 ?
b111 @
1&
#490000
b10 9
b10 =
b1011 :
b1011 >
b1011000000000010 A
0&
#495000
b1000 ;
b1000 ?
b1000 @
1&
#500000
b100 9
b100 =
b0 :
b0 >
b100 A
0&
#505000
b1001 ;
b1001 ?
b1001 @
1&
#510000
b11010100 c
b110 U
18
1P
1N
1O
b111 9
b111 =
1-
b1100 :
b1100 >
b1100000001000111 A
0&
#515000
b11101 K
b11101 T
b11101 h
b11011010100 "
b11011010100 2
b11011010100 S
b11010100 H
b11010100 d
b1101010 c
b110 J
b110 V
b110 f
0F
b11 U
b1100 ;
b1100 ?
b1100 @
b11010100 e
b110 W
1&
#520000
b11010100 c
b110 U
08
0P
0N
0O
b100 9
b100 =
0-
b0 :
b0 >
b100 A
0&
#525000
b1101 ;
b1101 ?
b1101 @
1&
#530000
18
b1 `
b111 9
b111 =
14
b100 :
b100 >
b100000000010111 A
0&
#535000
b1 L
b1 _
b0 `
b100 ;
b100 ?
b100 @
b1 a
1&
#540000
08
b1 `
b100 9
b100 =
04
b0 :
b0 >
b100 A
0&
#545000
b101 ;
b101 ?
b101 @
1&
#550000
b11 9
b11 =
b10001 :
b10001 >
b10001000000000011 A
0&
#555000
b110 ;
b110 ?
b110 @
1&
#560000
b0 9
b0 =
b0 :
b0 >
b0 A
0&
#565000
b111 ;
b111 ?
b111 @
1&
#570000
b10 9
b10 =
b1011 :
b1011 >
b1011000000000010 A
0&
#575000
b1000 ;
b1000 ?
b1000 @
1&
#580000
b100 9
b100 =
b0 :
b0 >
b100 A
0&
#585000
b1001 ;
b1001 ?
b1001 @
1&
#590000
b1101010 c
b11 U
18
1P
1N
1O
b111 9
b111 =
1-
b1100 :
b1100 >
b1100000001000111 A
0&
#595000
b11010 K
b11010 T
b11010 h
b1101101010 "
b1101101010 2
b1101101010 S
b1101010 H
b1101010 d
b10110101 c
b11 J
b11 V
b11 f
1F
b1 U
b1100 ;
b1100 ?
b1100 @
b1101010 e
b11 W
1&
#600000
b1101010 c
b11 U
08
0P
0N
0O
b100 9
b100 =
0-
b0 :
b0 >
b100 A
0&
#605000
b1101 ;
b1101 ?
b1101 @
1&
#610000
18
b0 `
b111 9
b111 =
14
b100 :
b100 >
b100000000010111 A
0&
#615000
b1zz01010 <
1,
b0 L
b0 _
b111 `
b100 ;
b100 ?
b100 @
b0 a
1&
#620000
08
b0 `
b100 9
b100 =
04
b0 :
b0 >
b100 A
0&
#625000
b101 ;
b101 ?
b101 @
1&
#630000
18
b11 9
b11 =
b10001 :
b10001 >
b10001000000000011 A
0&
#635000
b10001 ;
b10001 ?
b10001 @
1&
#640000
b10110101 c
b1 U
1P
1N
1O
b111 9
b111 =
1-
b10100 :
b10100 >
b10100000001000111 A
0&
#645000
b11000 K
b11000 T
b11000 h
b1zz01110 <
11
b110110101 "
b110110101 2
b110110101 S
b1 J
b1 V
b1 f
b0 U
b10110101 H
b10110101 d
1D
b11011010 c
b1 W
b10110101 e
b10100 ;
b10100 ?
b10100 @
1&
#650000
b10110101 c
b1 U
08
0P
0N
0O
b100 9
b100 =
0-
1!
b0 :
b0 >
b100000100 A
0&
#655000
b10101 ;
b10101 ?
b10101 @
1&
